\relax 
\providecommand\hyper@newdestlabel[2]{}
\providecommand\HyperFirstAtBeginDocument{\AtBeginDocument}
\HyperFirstAtBeginDocument{\ifx\hyper@anchor\@undefined
\global\let\oldcontentsline\contentsline
\gdef\contentsline#1#2#3#4{\oldcontentsline{#1}{#2}{#3}}
\global\let\oldnewlabel\newlabel
\gdef\newlabel#1#2{\newlabelxx{#1}#2}
\gdef\newlabelxx#1#2#3#4#5#6{\oldnewlabel{#1}{{#2}{#3}}}
\AtEndDocument{\ifx\hyper@anchor\@undefined
\let\contentsline\oldcontentsline
\let\newlabel\oldnewlabel
\fi}
\fi}
\global\let\hyper@last\relax 
\gdef\HyperFirstAtBeginDocument#1{#1}
\providecommand\HyField@AuxAddToFields[1]{}
\providecommand\HyField@AuxAddToCoFields[2]{}
\citation{cosphy}
\citation{sphsim}
\citation{crash}
\@writefile{toc}{\contentsline {section}{\numberline {1}Introduction}{1}{section.1}}
\newlabel{sec:int}{{1}{1}{Introduction}{section.1}{}}
\@writefile{toc}{\contentsline {subsection}{\numberline {1.1}Goal of Project}{2}{subsection.1.1}}
\@writefile{toc}{\contentsline {section}{\numberline {2}Background}{2}{section.2}}
\@writefile{toc}{\contentsline {subsection}{\numberline {2.1}Smoothed Particle Hydrodynamics}{2}{subsection.2.1}}
\newlabel{sec:sph}{{2.1}{2}{Smoothed Particle Hydrodynamics}{subsection.2.1}{}}
\newlabel{eq:sph}{{1}{2}{Smoothed Particle Hydrodynamics}{equation.2.1}{}}
\citation{gadget2}
\citation{astsph}
\newlabel{eq:keri}{{2}{3}{Smoothed Particle Hydrodynamics}{equation.2.2}{}}
\newlabel{eq:kerc}{{3}{3}{Smoothed Particle Hydrodynamics}{equation.2.3}{}}
\newlabel{eq:gad}{{4}{3}{Smoothed Particle Hydrodynamics}{equation.2.4}{}}
\newlabel{eq:dsph}{{5}{3}{Smoothed Particle Hydrodynamics}{equation.2.5}{}}
\newlabel{eq:rhof}{{6}{3}{Smoothed Particle Hydrodynamics}{equation.2.6}{}}
\@writefile{toc}{\contentsline {subsection}{\numberline {2.2}Radiative Transfer methods}{4}{subsection.2.2}}
\newlabel{eq:rad}{{7}{4}{Radiative Transfer methods}{equation.2.7}{}}
\newlabel{eq:sol}{{8}{4}{Radiative Transfer methods}{equation.2.8}{}}
\newlabel{eq:opt}{{9}{4}{Radiative Transfer methods}{equation.2.9}{}}
\newlabel{eq:col}{{10}{4}{Radiative Transfer methods}{equation.2.10}{}}
\newlabel{eq:ion}{{11}{4}{Radiative Transfer methods}{equation.2.11}{}}
\citation{rtgray,rtspitzer,rtoster,reion}
\citation{pbrt}
\citation{pbrt}
\newlabel{eq:het}{{12}{5}{Radiative Transfer methods}{equation.2.12}{}}
\@writefile{toc}{\contentsline {subsection}{\numberline {2.3}Ray Tracing}{5}{subsection.2.3}}
\@writefile{toc}{\contentsline {subsubsection}{\numberline {2.3.1}Acceleration Structures}{5}{subsubsection.2.3.1}}
\@writefile{toc}{\contentsline {section}{\numberline {3}Method}{6}{section.3}}
\newlabel{sec:mth}{{3}{6}{Method}{section.3}{}}
\@writefile{toc}{\contentsline {subsection}{\numberline {3.1}Rays \& Packets}{7}{subsection.3.1}}
\newlabel{sec:rps}{{3.1}{7}{Rays \& Packets}{subsection.3.1}{}}
\@writefile{toc}{\contentsline {subsubsection}{\numberline {3.1.1}Ray Packing}{7}{subsubsection.3.1.1}}
\newlabel{sec:rpc}{{3.1.1}{7}{Ray Packing}{subsubsection.3.1.1}{}}
\@writefile{lof}{\contentsline {figure}{\numberline {1}{\ignorespaces Pseudo code of packing rays using a KD-Tree.}}{7}{figure.1}}
\newlabel{alg:packing}{{1}{7}{Pseudo code of packing rays using a KD-Tree}{figure.1}{}}
\@writefile{toc}{\contentsline {subsection}{\numberline {3.2}Bounding Volume Hierarchy}{8}{subsection.3.2}}
\newlabel{sec:bvh}{{3.2}{8}{Bounding Volume Hierarchy}{subsection.3.2}{}}
\@writefile{toc}{\contentsline {subsubsection}{\numberline {3.2.1}Tree Construction \& Surface Area Heuristic}{9}{subsubsection.3.2.1}}
\newlabel{sec:con}{{3.2.1}{9}{Tree Construction \& Surface Area Heuristic}{subsubsection.3.2.1}{}}
\@writefile{lof}{\contentsline {figure}{\numberline {2}{\ignorespaces Pseudo code of BVH top-down build algorithm.}}{9}{figure.2}}
\newlabel{alg:build}{{2}{9}{Pseudo code of BVH top-down build algorithm}{figure.2}{}}
\@writefile{lof}{\contentsline {figure}{\numberline {3}{\ignorespaces Build strategies of a bounding volume hierarchy.}}{10}{figure.3}}
\newlabel{fig:str}{{3}{10}{Build strategies of a bounding volume hierarchy}{figure.3}{}}
\citation{bvhbin}
\@writefile{lof}{\contentsline {figure}{\numberline {4}{\ignorespaces Pseudo code of split plane selection.}}{11}{figure.4}}
\newlabel{alg:sah}{{4}{11}{Pseudo code of split plane selection}{figure.4}{}}
\newlabel{eg:sahcost}{{13}{12}{Tree Construction \& Surface Area Heuristic}{equation.3.13}{}}
\@writefile{toc}{\contentsline {subsubsection}{\numberline {3.2.2}Tree Traversal}{12}{subsubsection.3.2.2}}
\citation{raybox}
\citation{pacbox}
\citation{slabtest}
\citation{rtcd}
\citation{numsis}
\@writefile{lof}{\contentsline {figure}{\numberline {5}{\ignorespaces Pseudo code of BVH ray traversal.}}{13}{figure.5}}
\newlabel{alg:traversal}{{5}{13}{Pseudo code of BVH ray traversal}{figure.5}{}}
\@writefile{lof}{\contentsline {figure}{\numberline {6}{\ignorespaces Pseudo code of column density calculation for individual BVH node.}}{13}{figure.6}}
\newlabel{alg:nodedensity}{{6}{13}{Pseudo code of column density calculation for individual BVH node}{figure.6}{}}
\@writefile{lof}{\contentsline {figure}{\numberline {7}{\ignorespaces Ray-particle intersection cases.}}{14}{figure.7}}
\newlabel{fig:filt}{{7}{14}{Ray-particle intersection cases}{figure.7}{}}
\@writefile{lof}{\contentsline {figure}{\numberline {8}{\ignorespaces Diagram of kernel integration.}}{15}{figure.8}}
\newlabel{fig:intk}{{8}{15}{Diagram of kernel integration}{figure.8}{}}
\@writefile{toc}{\contentsline {subsection}{\numberline {3.3}Column Density Calculation}{15}{subsection.3.3}}
\newlabel{sec:cdc}{{3.3}{15}{Column Density Calculation}{subsection.3.3}{}}
\newlabel{eq:para}{{15}{16}{Column Density Calculation}{equation.3.15}{}}
\newlabel{eq:nb2}{{16}{16}{Column Density Calculation}{equation.3.16}{}}
\newlabel{eq:low}{{17}{16}{Column Density Calculation}{equation.3.17}{}}
\newlabel{eq:high}{{18}{16}{Column Density Calculation}{equation.3.18}{}}
\newlabel{eq:iplt}{{19}{16}{Column Density Calculation}{equation.3.19}{}}
\newlabel{eq:weight}{{20}{17}{Column Density Calculation}{equation.3.20}{}}
\@writefile{toc}{\contentsline {section}{\numberline {4}Optimization}{17}{section.4}}
\@writefile{toc}{\contentsline {subsection}{\numberline {4.1}Data Layout}{17}{subsection.4.1}}
\citation{ieee754}
\citation{bvhbin}
\citation{rayhur}
\@writefile{toc}{\contentsline {subsection}{\numberline {4.2}Lookup Table}{18}{subsection.4.2}}
\@writefile{toc}{\contentsline {subsection}{\numberline {4.3}Parallelism}{18}{subsection.4.3}}
\@writefile{toc}{\contentsline {subsubsection}{\numberline {4.3.1}Instruction Level Parallelism}{18}{subsubsection.4.3.1}}
\citation{bvhavx,packettrac,lpackets}
\@writefile{toc}{\contentsline {section}{\numberline {5}Verification \& Performance}{19}{section.5}}
\newlabel{sec:vepe}{{5}{19}{Verification \& Performance}{section.5}{}}
\@writefile{toc}{\contentsline {subsection}{\numberline {5.1}Tree Construction Verification}{19}{subsection.5.1}}
\@writefile{lof}{\contentsline {figure}{\numberline {9}{\ignorespaces Projection of tree distribution of test dataset.}}{20}{figure.9}}
\newlabel{ver:tmap}{{9}{20}{Projection of tree distribution of test dataset}{figure.9}{}}
\@writefile{toc}{\contentsline {subsection}{\numberline {5.2}Column Density Verification}{21}{subsection.5.2}}
\newlabel{eq:acd}{{21}{21}{Column Density Verification}{equation.5.21}{}}
\@writefile{toc}{\contentsline {subsection}{\numberline {5.3}Performance Analysis}{22}{subsection.5.3}}
\@writefile{toc}{\contentsline {subsection}{\numberline {5.4}Parallel Performance}{23}{subsection.5.4}}
\@writefile{lof}{\contentsline {figure}{\numberline {10}{\ignorespaces Fractional error to reference projection method.}}{25}{figure.10}}
\newlabel{fig:frc}{{10}{25}{Fractional error to reference projection method}{figure.10}{}}
\@writefile{lof}{\contentsline {figure}{\numberline {11}{\ignorespaces The build time with respect to the simulation size.}}{26}{figure.11}}
\newlabel{per:bld}{{11}{26}{The build time with respect to the simulation size}{figure.11}{}}
\@writefile{lof}{\contentsline {figure}{\numberline {12}{\ignorespaces Tracing performance of algorithm with respect to the simulation size.}}{26}{figure.12}}
\newlabel{per:trv}{{12}{26}{Tracing performance of algorithm with respect to the simulation size}{figure.12}{}}
\@writefile{lof}{\contentsline {figure}{\numberline {13}{\ignorespaces Time per ray for packets of various sizes.}}{27}{figure.13}}
\newlabel{fig:packet}{{13}{27}{Time per ray for packets of various sizes}{figure.13}{}}
\@writefile{lof}{\contentsline {figure}{\numberline {14}{\ignorespaces Comparison of brute force method and algorithm.}}{28}{figure.14}}
\newlabel{thr:prf}{{14}{28}{Comparison of brute force method and algorithm}{figure.14}{}}
\@writefile{lof}{\contentsline {figure}{\numberline {15}{\ignorespaces Scalability of algorithm showing strong scaling.}}{28}{figure.15}}
\newlabel{thr:scl}{{15}{28}{Scalability of algorithm showing strong scaling}{figure.15}{}}
\@writefile{toc}{\contentsline {section}{\numberline {6}Uses}{29}{section.6}}
\@writefile{toc}{\contentsline {subsection}{\numberline {6.1}Absorption by cold dust}{29}{subsection.6.1}}
\@writefile{toc}{\contentsline {subsection}{\numberline {6.2}Reionisation of the intergalactic medium}{29}{subsection.6.2}}
\@writefile{toc}{\contentsline {section}{\numberline {7}Discussion \& Further Work}{30}{section.7}}
\newlabel{sec:dis}{{7}{30}{Discussion \& Further Work}{section.7}{}}
\citation{mbvh}
\@writefile{toc}{\contentsline {section}{\numberline {8}Conclusion}{32}{section.8}}
\bibstyle{plain}
\bibdata{references}
\bibcite{ieee754}{1}
\bibcite{bvhavx}{2}
\bibcite{numsis}{3}
\bibcite{rtcd}{4}
\bibcite{mbvh}{5}
\bibcite{pacbox}{6}
\bibcite{rtgray}{7}
\bibcite{rayhur}{8}
\bibcite{sphsim}{9}
\bibcite{slabtest}{10}
\bibcite{rtspitzer}{11}
\bibcite{crash}{12}
\bibcite{rtoster}{13}
\bibcite{lpackets}{14}
\@writefile{toc}{\contentsline {section}{\numberline {9}Acknowledgements}{33}{section.9}}
\@writefile{toc}{\contentsline {section}{\numberline {10}References}{33}{section.10}}
\bibcite{cosphy}{15}
\bibcite{pbrt}{16}
\bibcite{gadget2}{17}
\bibcite{astsph}{18}
\bibcite{sbvh}{19}
\bibcite{reion}{20}
\bibcite{bvhbin}{21}
\bibcite{sweep}{22}
\bibcite{kdnlogn}{23}
\bibcite{packettrac}{24}
\bibcite{raybox}{25}
\citation{*}
\@writefile{toc}{\contentsline {section}{Appendices}{35}{section*.1}}
\@writefile{toc}{\contentsline {section}{\numberline {A}Kernel Look Up Table}{35}{Appendix.1.A}}
\newlabel{app:lut}{{A}{35}{Kernel Look Up Table}{Appendix.1.A}{}}
\@writefile{toc}{\contentsline {section}{\numberline {B}Source Code Access}{35}{Appendix.1.B}}
