\contentsline {figure}{\numberline {1}{\ignorespaces Pseudo code of packing rays using a KD-Tree.}}{7}{figure.1}
\contentsline {figure}{\numberline {2}{\ignorespaces Pseudo code of BVH top-down build algorithm.}}{9}{figure.2}
\contentsline {figure}{\numberline {3}{\ignorespaces Build strategies of a bounding volume hierarchy.}}{10}{figure.3}
\contentsline {figure}{\numberline {4}{\ignorespaces Pseudo code of split plane selection.}}{11}{figure.4}
\contentsline {figure}{\numberline {5}{\ignorespaces Pseudo code of BVH ray traversal.}}{13}{figure.5}
\contentsline {figure}{\numberline {6}{\ignorespaces Pseudo code of column density calculation for individual BVH node.}}{13}{figure.6}
\contentsline {figure}{\numberline {7}{\ignorespaces Ray-particle intersection cases.}}{14}{figure.7}
\contentsline {figure}{\numberline {8}{\ignorespaces Diagram of kernel integration.}}{15}{figure.8}
\contentsline {figure}{\numberline {9}{\ignorespaces Projection of tree distribution of test dataset.}}{20}{figure.9}
\contentsline {figure}{\numberline {10}{\ignorespaces Fractional error to reference projection method.}}{25}{figure.10}
\contentsline {figure}{\numberline {11}{\ignorespaces The build time with respect to the simulation size.}}{26}{figure.11}
\contentsline {figure}{\numberline {12}{\ignorespaces Tracing performance of algorithm with respect to the simulation size.}}{26}{figure.12}
\contentsline {figure}{\numberline {13}{\ignorespaces Time per ray for packets of various sizes.}}{27}{figure.13}
\contentsline {figure}{\numberline {14}{\ignorespaces Comparison of brute force method and algorithm.}}{28}{figure.14}
\contentsline {figure}{\numberline {15}{\ignorespaces Scalability of algorithm showing strong scaling.}}{28}{figure.15}
