%!PS-Adobe-2.0 EPSF-2.0
%%Title: ../graphics/thrperf.eps
%%Creator: gnuplot 4.6 patchlevel 4
%%CreationDate: Fri Mar 21 17:24:56 2014
%%DocumentFonts: (atend)
%%BoundingBox: 50 50 410 302
%%EndComments
%%BeginProlog
/gnudict 256 dict def
gnudict begin
%
% The following true/false flags may be edited by hand if desired.
% The unit line width and grayscale image gamma correction may also be changed.
%
/Color true def
/Blacktext false def
/Solid false def
/Dashlength 1 def
/Landscape false def
/Level1 false def
/Rounded false def
/ClipToBoundingBox false def
/SuppressPDFMark false def
/TransparentPatterns false def
/gnulinewidth 5.000 def
/userlinewidth gnulinewidth def
/Gamma 1.0 def
/BackgroundColor {-1.000 -1.000 -1.000} def
%
/vshift -46 def
/dl1 {
  10.0 Dashlength mul mul
  Rounded { currentlinewidth 0.75 mul sub dup 0 le { pop 0.01 } if } if
} def
/dl2 {
  10.0 Dashlength mul mul
  Rounded { currentlinewidth 0.75 mul add } if
} def
/hpt_ 31.5 def
/vpt_ 31.5 def
/hpt hpt_ def
/vpt vpt_ def
/doclip {
  ClipToBoundingBox {
    newpath 50 50 moveto 410 50 lineto 410 302 lineto 50 302 lineto closepath
    clip
  } if
} def
%
% Gnuplot Prolog Version 4.6 (September 2012)
%
%/SuppressPDFMark true def
%
/M {moveto} bind def
/L {lineto} bind def
/R {rmoveto} bind def
/V {rlineto} bind def
/N {newpath moveto} bind def
/Z {closepath} bind def
/C {setrgbcolor} bind def
/f {rlineto fill} bind def
/g {setgray} bind def
/Gshow {show} def   % May be redefined later in the file to support UTF-8
/vpt2 vpt 2 mul def
/hpt2 hpt 2 mul def
/Lshow {currentpoint stroke M 0 vshift R 
	Blacktext {gsave 0 setgray show grestore} {show} ifelse} def
/Rshow {currentpoint stroke M dup stringwidth pop neg vshift R
	Blacktext {gsave 0 setgray show grestore} {show} ifelse} def
/Cshow {currentpoint stroke M dup stringwidth pop -2 div vshift R 
	Blacktext {gsave 0 setgray show grestore} {show} ifelse} def
/UP {dup vpt_ mul /vpt exch def hpt_ mul /hpt exch def
  /hpt2 hpt 2 mul def /vpt2 vpt 2 mul def} def
/DL {Color {setrgbcolor Solid {pop []} if 0 setdash}
 {pop pop pop 0 setgray Solid {pop []} if 0 setdash} ifelse} def
/BL {stroke userlinewidth 2 mul setlinewidth
	Rounded {1 setlinejoin 1 setlinecap} if} def
/AL {stroke userlinewidth 2 div setlinewidth
	Rounded {1 setlinejoin 1 setlinecap} if} def
/UL {dup gnulinewidth mul /userlinewidth exch def
	dup 1 lt {pop 1} if 10 mul /udl exch def} def
/PL {stroke userlinewidth setlinewidth
	Rounded {1 setlinejoin 1 setlinecap} if} def
3.8 setmiterlimit
% Default Line colors
/LCw {1 1 1} def
/LCb {0 0 0} def
/LCa {0 0 0} def
/LC0 {1 0 0} def
/LC1 {0 1 0} def
/LC2 {0 0 1} def
/LC3 {1 0 1} def
/LC4 {0 1 1} def
/LC5 {1 1 0} def
/LC6 {0 0 0} def
/LC7 {1 0.3 0} def
/LC8 {0.5 0.5 0.5} def
% Default Line Types
/LTw {PL [] 1 setgray} def
/LTb {BL [] LCb DL} def
/LTa {AL [1 udl mul 2 udl mul] 0 setdash LCa setrgbcolor} def
/LT0 {PL [] LC0 DL} def
/LT1 {PL [4 dl1 2 dl2] LC1 DL} def
/LT2 {PL [2 dl1 3 dl2] LC2 DL} def
/LT3 {PL [1 dl1 1.5 dl2] LC3 DL} def
/LT4 {PL [6 dl1 2 dl2 1 dl1 2 dl2] LC4 DL} def
/LT5 {PL [3 dl1 3 dl2 1 dl1 3 dl2] LC5 DL} def
/LT6 {PL [2 dl1 2 dl2 2 dl1 6 dl2] LC6 DL} def
/LT7 {PL [1 dl1 2 dl2 6 dl1 2 dl2 1 dl1 2 dl2] LC7 DL} def
/LT8 {PL [2 dl1 2 dl2 2 dl1 2 dl2 2 dl1 2 dl2 2 dl1 4 dl2] LC8 DL} def
/Pnt {stroke [] 0 setdash gsave 1 setlinecap M 0 0 V stroke grestore} def
/Dia {stroke [] 0 setdash 2 copy vpt add M
  hpt neg vpt neg V hpt vpt neg V
  hpt vpt V hpt neg vpt V closepath stroke
  Pnt} def
/Pls {stroke [] 0 setdash vpt sub M 0 vpt2 V
  currentpoint stroke M
  hpt neg vpt neg R hpt2 0 V stroke
 } def
/Box {stroke [] 0 setdash 2 copy exch hpt sub exch vpt add M
  0 vpt2 neg V hpt2 0 V 0 vpt2 V
  hpt2 neg 0 V closepath stroke
  Pnt} def
/Crs {stroke [] 0 setdash exch hpt sub exch vpt add M
  hpt2 vpt2 neg V currentpoint stroke M
  hpt2 neg 0 R hpt2 vpt2 V stroke} def
/TriU {stroke [] 0 setdash 2 copy vpt 1.12 mul add M
  hpt neg vpt -1.62 mul V
  hpt 2 mul 0 V
  hpt neg vpt 1.62 mul V closepath stroke
  Pnt} def
/Star {2 copy Pls Crs} def
/BoxF {stroke [] 0 setdash exch hpt sub exch vpt add M
  0 vpt2 neg V hpt2 0 V 0 vpt2 V
  hpt2 neg 0 V closepath fill} def
/TriUF {stroke [] 0 setdash vpt 1.12 mul add M
  hpt neg vpt -1.62 mul V
  hpt 2 mul 0 V
  hpt neg vpt 1.62 mul V closepath fill} def
/TriD {stroke [] 0 setdash 2 copy vpt 1.12 mul sub M
  hpt neg vpt 1.62 mul V
  hpt 2 mul 0 V
  hpt neg vpt -1.62 mul V closepath stroke
  Pnt} def
/TriDF {stroke [] 0 setdash vpt 1.12 mul sub M
  hpt neg vpt 1.62 mul V
  hpt 2 mul 0 V
  hpt neg vpt -1.62 mul V closepath fill} def
/DiaF {stroke [] 0 setdash vpt add M
  hpt neg vpt neg V hpt vpt neg V
  hpt vpt V hpt neg vpt V closepath fill} def
/Pent {stroke [] 0 setdash 2 copy gsave
  translate 0 hpt M 4 {72 rotate 0 hpt L} repeat
  closepath stroke grestore Pnt} def
/PentF {stroke [] 0 setdash gsave
  translate 0 hpt M 4 {72 rotate 0 hpt L} repeat
  closepath fill grestore} def
/Circle {stroke [] 0 setdash 2 copy
  hpt 0 360 arc stroke Pnt} def
/CircleF {stroke [] 0 setdash hpt 0 360 arc fill} def
/C0 {BL [] 0 setdash 2 copy moveto vpt 90 450 arc} bind def
/C1 {BL [] 0 setdash 2 copy moveto
	2 copy vpt 0 90 arc closepath fill
	vpt 0 360 arc closepath} bind def
/C2 {BL [] 0 setdash 2 copy moveto
	2 copy vpt 90 180 arc closepath fill
	vpt 0 360 arc closepath} bind def
/C3 {BL [] 0 setdash 2 copy moveto
	2 copy vpt 0 180 arc closepath fill
	vpt 0 360 arc closepath} bind def
/C4 {BL [] 0 setdash 2 copy moveto
	2 copy vpt 180 270 arc closepath fill
	vpt 0 360 arc closepath} bind def
/C5 {BL [] 0 setdash 2 copy moveto
	2 copy vpt 0 90 arc
	2 copy moveto
	2 copy vpt 180 270 arc closepath fill
	vpt 0 360 arc} bind def
/C6 {BL [] 0 setdash 2 copy moveto
	2 copy vpt 90 270 arc closepath fill
	vpt 0 360 arc closepath} bind def
/C7 {BL [] 0 setdash 2 copy moveto
	2 copy vpt 0 270 arc closepath fill
	vpt 0 360 arc closepath} bind def
/C8 {BL [] 0 setdash 2 copy moveto
	2 copy vpt 270 360 arc closepath fill
	vpt 0 360 arc closepath} bind def
/C9 {BL [] 0 setdash 2 copy moveto
	2 copy vpt 270 450 arc closepath fill
	vpt 0 360 arc closepath} bind def
/C10 {BL [] 0 setdash 2 copy 2 copy moveto vpt 270 360 arc closepath fill
	2 copy moveto
	2 copy vpt 90 180 arc closepath fill
	vpt 0 360 arc closepath} bind def
/C11 {BL [] 0 setdash 2 copy moveto
	2 copy vpt 0 180 arc closepath fill
	2 copy moveto
	2 copy vpt 270 360 arc closepath fill
	vpt 0 360 arc closepath} bind def
/C12 {BL [] 0 setdash 2 copy moveto
	2 copy vpt 180 360 arc closepath fill
	vpt 0 360 arc closepath} bind def
/C13 {BL [] 0 setdash 2 copy moveto
	2 copy vpt 0 90 arc closepath fill
	2 copy moveto
	2 copy vpt 180 360 arc closepath fill
	vpt 0 360 arc closepath} bind def
/C14 {BL [] 0 setdash 2 copy moveto
	2 copy vpt 90 360 arc closepath fill
	vpt 0 360 arc} bind def
/C15 {BL [] 0 setdash 2 copy vpt 0 360 arc closepath fill
	vpt 0 360 arc closepath} bind def
/Rec {newpath 4 2 roll moveto 1 index 0 rlineto 0 exch rlineto
	neg 0 rlineto closepath} bind def
/Square {dup Rec} bind def
/Bsquare {vpt sub exch vpt sub exch vpt2 Square} bind def
/S0 {BL [] 0 setdash 2 copy moveto 0 vpt rlineto BL Bsquare} bind def
/S1 {BL [] 0 setdash 2 copy vpt Square fill Bsquare} bind def
/S2 {BL [] 0 setdash 2 copy exch vpt sub exch vpt Square fill Bsquare} bind def
/S3 {BL [] 0 setdash 2 copy exch vpt sub exch vpt2 vpt Rec fill Bsquare} bind def
/S4 {BL [] 0 setdash 2 copy exch vpt sub exch vpt sub vpt Square fill Bsquare} bind def
/S5 {BL [] 0 setdash 2 copy 2 copy vpt Square fill
	exch vpt sub exch vpt sub vpt Square fill Bsquare} bind def
/S6 {BL [] 0 setdash 2 copy exch vpt sub exch vpt sub vpt vpt2 Rec fill Bsquare} bind def
/S7 {BL [] 0 setdash 2 copy exch vpt sub exch vpt sub vpt vpt2 Rec fill
	2 copy vpt Square fill Bsquare} bind def
/S8 {BL [] 0 setdash 2 copy vpt sub vpt Square fill Bsquare} bind def
/S9 {BL [] 0 setdash 2 copy vpt sub vpt vpt2 Rec fill Bsquare} bind def
/S10 {BL [] 0 setdash 2 copy vpt sub vpt Square fill 2 copy exch vpt sub exch vpt Square fill
	Bsquare} bind def
/S11 {BL [] 0 setdash 2 copy vpt sub vpt Square fill 2 copy exch vpt sub exch vpt2 vpt Rec fill
	Bsquare} bind def
/S12 {BL [] 0 setdash 2 copy exch vpt sub exch vpt sub vpt2 vpt Rec fill Bsquare} bind def
/S13 {BL [] 0 setdash 2 copy exch vpt sub exch vpt sub vpt2 vpt Rec fill
	2 copy vpt Square fill Bsquare} bind def
/S14 {BL [] 0 setdash 2 copy exch vpt sub exch vpt sub vpt2 vpt Rec fill
	2 copy exch vpt sub exch vpt Square fill Bsquare} bind def
/S15 {BL [] 0 setdash 2 copy Bsquare fill Bsquare} bind def
/D0 {gsave translate 45 rotate 0 0 S0 stroke grestore} bind def
/D1 {gsave translate 45 rotate 0 0 S1 stroke grestore} bind def
/D2 {gsave translate 45 rotate 0 0 S2 stroke grestore} bind def
/D3 {gsave translate 45 rotate 0 0 S3 stroke grestore} bind def
/D4 {gsave translate 45 rotate 0 0 S4 stroke grestore} bind def
/D5 {gsave translate 45 rotate 0 0 S5 stroke grestore} bind def
/D6 {gsave translate 45 rotate 0 0 S6 stroke grestore} bind def
/D7 {gsave translate 45 rotate 0 0 S7 stroke grestore} bind def
/D8 {gsave translate 45 rotate 0 0 S8 stroke grestore} bind def
/D9 {gsave translate 45 rotate 0 0 S9 stroke grestore} bind def
/D10 {gsave translate 45 rotate 0 0 S10 stroke grestore} bind def
/D11 {gsave translate 45 rotate 0 0 S11 stroke grestore} bind def
/D12 {gsave translate 45 rotate 0 0 S12 stroke grestore} bind def
/D13 {gsave translate 45 rotate 0 0 S13 stroke grestore} bind def
/D14 {gsave translate 45 rotate 0 0 S14 stroke grestore} bind def
/D15 {gsave translate 45 rotate 0 0 S15 stroke grestore} bind def
/DiaE {stroke [] 0 setdash vpt add M
  hpt neg vpt neg V hpt vpt neg V
  hpt vpt V hpt neg vpt V closepath stroke} def
/BoxE {stroke [] 0 setdash exch hpt sub exch vpt add M
  0 vpt2 neg V hpt2 0 V 0 vpt2 V
  hpt2 neg 0 V closepath stroke} def
/TriUE {stroke [] 0 setdash vpt 1.12 mul add M
  hpt neg vpt -1.62 mul V
  hpt 2 mul 0 V
  hpt neg vpt 1.62 mul V closepath stroke} def
/TriDE {stroke [] 0 setdash vpt 1.12 mul sub M
  hpt neg vpt 1.62 mul V
  hpt 2 mul 0 V
  hpt neg vpt -1.62 mul V closepath stroke} def
/PentE {stroke [] 0 setdash gsave
  translate 0 hpt M 4 {72 rotate 0 hpt L} repeat
  closepath stroke grestore} def
/CircE {stroke [] 0 setdash 
  hpt 0 360 arc stroke} def
/Opaque {gsave closepath 1 setgray fill grestore 0 setgray closepath} def
/DiaW {stroke [] 0 setdash vpt add M
  hpt neg vpt neg V hpt vpt neg V
  hpt vpt V hpt neg vpt V Opaque stroke} def
/BoxW {stroke [] 0 setdash exch hpt sub exch vpt add M
  0 vpt2 neg V hpt2 0 V 0 vpt2 V
  hpt2 neg 0 V Opaque stroke} def
/TriUW {stroke [] 0 setdash vpt 1.12 mul add M
  hpt neg vpt -1.62 mul V
  hpt 2 mul 0 V
  hpt neg vpt 1.62 mul V Opaque stroke} def
/TriDW {stroke [] 0 setdash vpt 1.12 mul sub M
  hpt neg vpt 1.62 mul V
  hpt 2 mul 0 V
  hpt neg vpt -1.62 mul V Opaque stroke} def
/PentW {stroke [] 0 setdash gsave
  translate 0 hpt M 4 {72 rotate 0 hpt L} repeat
  Opaque stroke grestore} def
/CircW {stroke [] 0 setdash 
  hpt 0 360 arc Opaque stroke} def
/BoxFill {gsave Rec 1 setgray fill grestore} def
/Density {
  /Fillden exch def
  currentrgbcolor
  /ColB exch def /ColG exch def /ColR exch def
  /ColR ColR Fillden mul Fillden sub 1 add def
  /ColG ColG Fillden mul Fillden sub 1 add def
  /ColB ColB Fillden mul Fillden sub 1 add def
  ColR ColG ColB setrgbcolor} def
/BoxColFill {gsave Rec PolyFill} def
/PolyFill {gsave Density fill grestore grestore} def
/h {rlineto rlineto rlineto gsave closepath fill grestore} bind def
%
% PostScript Level 1 Pattern Fill routine for rectangles
% Usage: x y w h s a XX PatternFill
%	x,y = lower left corner of box to be filled
%	w,h = width and height of box
%	  a = angle in degrees between lines and x-axis
%	 XX = 0/1 for no/yes cross-hatch
%
/PatternFill {gsave /PFa [ 9 2 roll ] def
  PFa 0 get PFa 2 get 2 div add PFa 1 get PFa 3 get 2 div add translate
  PFa 2 get -2 div PFa 3 get -2 div PFa 2 get PFa 3 get Rec
  TransparentPatterns {} {gsave 1 setgray fill grestore} ifelse
  clip
  currentlinewidth 0.5 mul setlinewidth
  /PFs PFa 2 get dup mul PFa 3 get dup mul add sqrt def
  0 0 M PFa 5 get rotate PFs -2 div dup translate
  0 1 PFs PFa 4 get div 1 add floor cvi
	{PFa 4 get mul 0 M 0 PFs V} for
  0 PFa 6 get ne {
	0 1 PFs PFa 4 get div 1 add floor cvi
	{PFa 4 get mul 0 2 1 roll M PFs 0 V} for
 } if
  stroke grestore} def
%
/languagelevel where
 {pop languagelevel} {1} ifelse
 2 lt
	{/InterpretLevel1 true def}
	{/InterpretLevel1 Level1 def}
 ifelse
%
% PostScript level 2 pattern fill definitions
%
/Level2PatternFill {
/Tile8x8 {/PaintType 2 /PatternType 1 /TilingType 1 /BBox [0 0 8 8] /XStep 8 /YStep 8}
	bind def
/KeepColor {currentrgbcolor [/Pattern /DeviceRGB] setcolorspace} bind def
<< Tile8x8
 /PaintProc {0.5 setlinewidth pop 0 0 M 8 8 L 0 8 M 8 0 L stroke} 
>> matrix makepattern
/Pat1 exch def
<< Tile8x8
 /PaintProc {0.5 setlinewidth pop 0 0 M 8 8 L 0 8 M 8 0 L stroke
	0 4 M 4 8 L 8 4 L 4 0 L 0 4 L stroke}
>> matrix makepattern
/Pat2 exch def
<< Tile8x8
 /PaintProc {0.5 setlinewidth pop 0 0 M 0 8 L
	8 8 L 8 0 L 0 0 L fill}
>> matrix makepattern
/Pat3 exch def
<< Tile8x8
 /PaintProc {0.5 setlinewidth pop -4 8 M 8 -4 L
	0 12 M 12 0 L stroke}
>> matrix makepattern
/Pat4 exch def
<< Tile8x8
 /PaintProc {0.5 setlinewidth pop -4 0 M 8 12 L
	0 -4 M 12 8 L stroke}
>> matrix makepattern
/Pat5 exch def
<< Tile8x8
 /PaintProc {0.5 setlinewidth pop -2 8 M 4 -4 L
	0 12 M 8 -4 L 4 12 M 10 0 L stroke}
>> matrix makepattern
/Pat6 exch def
<< Tile8x8
 /PaintProc {0.5 setlinewidth pop -2 0 M 4 12 L
	0 -4 M 8 12 L 4 -4 M 10 8 L stroke}
>> matrix makepattern
/Pat7 exch def
<< Tile8x8
 /PaintProc {0.5 setlinewidth pop 8 -2 M -4 4 L
	12 0 M -4 8 L 12 4 M 0 10 L stroke}
>> matrix makepattern
/Pat8 exch def
<< Tile8x8
 /PaintProc {0.5 setlinewidth pop 0 -2 M 12 4 L
	-4 0 M 12 8 L -4 4 M 8 10 L stroke}
>> matrix makepattern
/Pat9 exch def
/Pattern1 {PatternBgnd KeepColor Pat1 setpattern} bind def
/Pattern2 {PatternBgnd KeepColor Pat2 setpattern} bind def
/Pattern3 {PatternBgnd KeepColor Pat3 setpattern} bind def
/Pattern4 {PatternBgnd KeepColor Landscape {Pat5} {Pat4} ifelse setpattern} bind def
/Pattern5 {PatternBgnd KeepColor Landscape {Pat4} {Pat5} ifelse setpattern} bind def
/Pattern6 {PatternBgnd KeepColor Landscape {Pat9} {Pat6} ifelse setpattern} bind def
/Pattern7 {PatternBgnd KeepColor Landscape {Pat8} {Pat7} ifelse setpattern} bind def
} def
%
%
%End of PostScript Level 2 code
%
/PatternBgnd {
  TransparentPatterns {} {gsave 1 setgray fill grestore} ifelse
} def
%
% Substitute for Level 2 pattern fill codes with
% grayscale if Level 2 support is not selected.
%
/Level1PatternFill {
/Pattern1 {0.250 Density} bind def
/Pattern2 {0.500 Density} bind def
/Pattern3 {0.750 Density} bind def
/Pattern4 {0.125 Density} bind def
/Pattern5 {0.375 Density} bind def
/Pattern6 {0.625 Density} bind def
/Pattern7 {0.875 Density} bind def
} def
%
% Now test for support of Level 2 code
%
Level1 {Level1PatternFill} {Level2PatternFill} ifelse
%
/Symbol-Oblique /Symbol findfont [1 0 .167 1 0 0] makefont
dup length dict begin {1 index /FID eq {pop pop} {def} ifelse} forall
currentdict end definefont pop
/MFshow {
   { dup 5 get 3 ge
     { 5 get 3 eq {gsave} {grestore} ifelse }
     {dup dup 0 get findfont exch 1 get scalefont setfont
     [ currentpoint ] exch dup 2 get 0 exch R dup 5 get 2 ne {dup dup 6
     get exch 4 get {Gshow} {stringwidth pop 0 R} ifelse }if dup 5 get 0 eq
     {dup 3 get {2 get neg 0 exch R pop} {pop aload pop M} ifelse} {dup 5
     get 1 eq {dup 2 get exch dup 3 get exch 6 get stringwidth pop -2 div
     dup 0 R} {dup 6 get stringwidth pop -2 div 0 R 6 get
     show 2 index {aload pop M neg 3 -1 roll neg R pop pop} {pop pop pop
     pop aload pop M} ifelse }ifelse }ifelse }
     ifelse }
   forall} def
/Gswidth {dup type /stringtype eq {stringwidth} {pop (n) stringwidth} ifelse} def
/MFwidth {0 exch { dup 5 get 3 ge { 5 get 3 eq { 0 } { pop } ifelse }
 {dup 3 get{dup dup 0 get findfont exch 1 get scalefont setfont
     6 get Gswidth pop add} {pop} ifelse} ifelse} forall} def
/MLshow { currentpoint stroke M
  0 exch R
  Blacktext {gsave 0 setgray MFshow grestore} {MFshow} ifelse } bind def
/MRshow { currentpoint stroke M
  exch dup MFwidth neg 3 -1 roll R
  Blacktext {gsave 0 setgray MFshow grestore} {MFshow} ifelse } bind def
/MCshow { currentpoint stroke M
  exch dup MFwidth -2 div 3 -1 roll R
  Blacktext {gsave 0 setgray MFshow grestore} {MFshow} ifelse } bind def
/XYsave    { [( ) 1 2 true false 3 ()] } bind def
/XYrestore { [( ) 1 2 true false 4 ()] } bind def
Level1 SuppressPDFMark or 
{} {
/SDict 10 dict def
systemdict /pdfmark known not {
  userdict /pdfmark systemdict /cleartomark get put
} if
SDict begin [
  /Title (../graphics/thrperf.eps)
  /Subject (gnuplot plot)
  /Creator (gnuplot 4.6 patchlevel 4)
  /Author (devel)
%  /Producer (gnuplot)
%  /Keywords ()
  /CreationDate (Fri Mar 21 17:24:56 2014)
  /DOCINFO pdfmark
end
} ifelse
end
%%EndProlog
%%Page: 1 1
gnudict begin
gsave
doclip
50 50 translate
0.050 0.050 scale
0 setgray
newpath
(Helvetica) findfont 140 scalefont setfont
BackgroundColor 0 lt 3 1 roll 0 lt exch 0 lt or or not {BackgroundColor C 1.000 0 0 7200.00 5040.00 BoxColFill} if
1.500 UL
LTb
0.42 0.42 0.42 C 1.000 UL
LTa
0.84 0.88 0.79 C 518 448 M
6429 0 V
stroke
1.500 UL
LTb
0.42 0.42 0.42 C 518 448 M
63 0 V
6366 0 R
-63 0 V
stroke
434 448 M
[ [(Helvetica) 140.0 0.0 true true 0 (10)]
[(Helvetica) 112.0 70.0 true true 0 (0)]
] -60.7 MRshow
1.500 UL
LTb
0.42 0.42 0.42 C 518 714 M
31 0 V
6398 0 R
-31 0 V
518 1066 M
31 0 V
6398 0 R
-31 0 V
518 1247 M
31 0 V
6398 0 R
-31 0 V
stroke
1.000 UL
LTa
0.84 0.88 0.79 C 518 1333 M
6429 0 V
stroke
1.500 UL
LTb
0.42 0.42 0.42 C 518 1333 M
63 0 V
6366 0 R
-63 0 V
stroke
434 1333 M
[ [(Helvetica) 140.0 0.0 true true 0 (10)]
[(Helvetica) 112.0 70.0 true true 0 (1)]
] -60.7 MRshow
1.500 UL
LTb
0.42 0.42 0.42 C 518 1599 M
31 0 V
6398 0 R
-31 0 V
518 1951 M
31 0 V
6398 0 R
-31 0 V
518 2131 M
31 0 V
6398 0 R
-31 0 V
stroke
1.000 UL
LTa
0.84 0.88 0.79 C 518 2217 M
6429 0 V
stroke
1.500 UL
LTb
0.42 0.42 0.42 C 518 2217 M
63 0 V
6366 0 R
-63 0 V
stroke
434 2217 M
[ [(Helvetica) 140.0 0.0 true true 0 (10)]
[(Helvetica) 112.0 70.0 true true 0 (2)]
] -60.7 MRshow
1.500 UL
LTb
0.42 0.42 0.42 C 518 2483 M
31 0 V
6398 0 R
-31 0 V
518 2836 M
31 0 V
6398 0 R
-31 0 V
518 3016 M
31 0 V
6398 0 R
-31 0 V
stroke
1.000 UL
LTa
0.84 0.88 0.79 C 518 3102 M
6429 0 V
stroke
1.500 UL
LTb
0.42 0.42 0.42 C 518 3102 M
63 0 V
6366 0 R
-63 0 V
stroke
434 3102 M
[ [(Helvetica) 140.0 0.0 true true 0 (10)]
[(Helvetica) 112.0 70.0 true true 0 (3)]
] -60.7 MRshow
1.500 UL
LTb
0.42 0.42 0.42 C 518 3368 M
31 0 V
6398 0 R
-31 0 V
518 3720 M
31 0 V
6398 0 R
-31 0 V
518 3901 M
31 0 V
6398 0 R
-31 0 V
stroke
1.000 UL
LTa
0.84 0.88 0.79 C 518 3986 M
6429 0 V
stroke
1.500 UL
LTb
0.42 0.42 0.42 C 518 3986 M
63 0 V
6366 0 R
-63 0 V
stroke
434 3986 M
[ [(Helvetica) 140.0 0.0 true true 0 (10)]
[(Helvetica) 112.0 70.0 true true 0 (4)]
] -60.7 MRshow
1.500 UL
LTb
0.42 0.42 0.42 C 518 4253 M
31 0 V
6398 0 R
-31 0 V
518 4605 M
31 0 V
6398 0 R
-31 0 V
518 4785 M
31 0 V
6398 0 R
-31 0 V
stroke
1.000 UL
LTa
0.84 0.88 0.79 C 518 4871 M
6429 0 V
stroke
1.500 UL
LTb
0.42 0.42 0.42 C 518 4871 M
63 0 V
6366 0 R
-63 0 V
stroke
434 4871 M
[ [(Helvetica) 140.0 0.0 true true 0 (10)]
[(Helvetica) 112.0 70.0 true true 0 (5)]
] -60.7 MRshow
1.500 UL
LTb
0.42 0.42 0.42 C 1.000 UL
LTa
0.84 0.88 0.79 C 518 448 M
0 4423 V
stroke
1.500 UL
LTb
0.42 0.42 0.42 C 518 448 M
0 63 V
0 4360 R
0 -63 V
stroke
518 308 M
[ [(Helvetica) 140.0 0.0 true true 0 ( 0)]
] -46.7 MCshow
1.500 UL
LTb
0.42 0.42 0.42 C 1.000 UL
LTa
0.84 0.88 0.79 C 1492 448 M
0 4423 V
stroke
1.500 UL
LTb
0.42 0.42 0.42 C 1492 448 M
0 63 V
0 4360 R
0 -63 V
stroke
1492 308 M
[ [(Helvetica) 140.0 0.0 true true 0 ( 5)]
] -46.7 MCshow
1.500 UL
LTb
0.42 0.42 0.42 C 1.000 UL
LTa
0.84 0.88 0.79 C 2466 448 M
0 4423 V
stroke
1.500 UL
LTb
0.42 0.42 0.42 C 2466 448 M
0 63 V
0 4360 R
0 -63 V
stroke
2466 308 M
[ [(Helvetica) 140.0 0.0 true true 0 ( 10)]
] -46.7 MCshow
1.500 UL
LTb
0.42 0.42 0.42 C 1.000 UL
LTa
0.84 0.88 0.79 C 3440 448 M
0 4423 V
stroke
1.500 UL
LTb
0.42 0.42 0.42 C 3440 448 M
0 63 V
0 4360 R
0 -63 V
stroke
3440 308 M
[ [(Helvetica) 140.0 0.0 true true 0 ( 15)]
] -46.7 MCshow
1.500 UL
LTb
0.42 0.42 0.42 C 1.000 UL
LTa
0.84 0.88 0.79 C 4414 448 M
0 4423 V
stroke
1.500 UL
LTb
0.42 0.42 0.42 C 4414 448 M
0 63 V
0 4360 R
0 -63 V
stroke
4414 308 M
[ [(Helvetica) 140.0 0.0 true true 0 ( 20)]
] -46.7 MCshow
1.500 UL
LTb
0.42 0.42 0.42 C 1.000 UL
LTa
0.84 0.88 0.79 C 5388 448 M
0 3940 V
0 420 R
0 63 V
stroke
1.500 UL
LTb
0.42 0.42 0.42 C 5388 448 M
0 63 V
0 4360 R
0 -63 V
stroke
5388 308 M
[ [(Helvetica) 140.0 0.0 true true 0 ( 25)]
] -46.7 MCshow
1.500 UL
LTb
0.42 0.42 0.42 C 1.000 UL
LTa
0.84 0.88 0.79 C 6363 448 M
0 3940 V
0 420 R
0 63 V
stroke
1.500 UL
LTb
0.42 0.42 0.42 C 6363 448 M
0 63 V
0 4360 R
0 -63 V
stroke
6363 308 M
[ [(Helvetica) 140.0 0.0 true true 0 ( 30)]
] -46.7 MCshow
1.500 UL
LTb
0.42 0.42 0.42 C 1.500 UL
LTb
0.42 0.42 0.42 C 518 4871 N
518 448 L
6429 0 V
0 4423 V
-6429 0 V
Z stroke
LCb setrgbcolor
112 2659 M
currentpoint gsave translate -270 rotate 0 0 moveto
[ [(Helvetica) 140.0 0.0 true true 0 (Time \()]
[(Symbol) 140.0 0.0 true true 0 (m)]
[(Helvetica) 140.0 0.0 true true 0 (s\))]
] -46.7 MCshow
grestore
LTb
LCb setrgbcolor
3732 98 M
[ [(Helvetica) 140.0 0.0 true true 0 (Threads)]
] -46.7 MCshow
LTb
1.200 UP
1.500 UL
LTb
0.42 0.42 0.42 C % Begin plot #1
1.200 UP
2.000 UL
LT0
0.45 0.59 0.90 C LCb setrgbcolor
6284 4738 M
[ [(Helvetica) 140.0 0.0 true true 0 (Estimated Brute Force)]
] -46.7 MRshow
LT0
0.45 0.59 0.90 C 6368 4738 M
411 0 V
713 4120 M
908 3854 L
194 -156 V
195 -110 V
195 -86 V
195 -70 V
195 -59 V
195 -51 V
194 -46 V
195 -40 V
195 -37 V
195 -33 V
195 -31 V
194 -28 V
195 -27 V
195 -25 V
195 -23 V
195 -22 V
195 -21 V
194 -20 V
195 -18 V
195 -18 V
195 -17 V
195 -17 V
194 -15 V
195 -15 V
195 -15 V
195 -14 V
195 -13 V
195 -13 V
194 -13 V
195 -12 V
713 4120 CircleF
908 3854 CircleF
1102 3698 CircleF
1297 3588 CircleF
1492 3502 CircleF
1687 3432 CircleF
1882 3373 CircleF
2077 3322 CircleF
2271 3276 CircleF
2466 3236 CircleF
2661 3199 CircleF
2856 3166 CircleF
3051 3135 CircleF
3245 3107 CircleF
3440 3080 CircleF
3635 3055 CircleF
3830 3032 CircleF
4025 3010 CircleF
4220 2989 CircleF
4414 2969 CircleF
4609 2951 CircleF
4804 2933 CircleF
4999 2916 CircleF
5194 2899 CircleF
5388 2884 CircleF
5583 2869 CircleF
5778 2854 CircleF
5973 2840 CircleF
6168 2827 CircleF
6363 2814 CircleF
6557 2801 CircleF
6752 2789 CircleF
6573 4738 CircleF
% End plot #1
% Begin plot #2
1.200 UP
2.000 UL
LT1
0.40 0.92 0.52 C LCb setrgbcolor
6284 4598 M
[ [(Helvetica) 140.0 0.0 true true 0 (Rays)]
] -46.7 MRshow
LT1
0.40 0.92 0.52 C 6368 4598 M
411 0 V
713 2449 M
908 2186 L
194 -153 V
195 -110 V
195 -84 V
195 -68 V
195 -57 V
195 -51 V
194 -42 V
195 -37 V
195 -31 V
195 -31 V
195 -32 V
194 -23 V
195 -24 V
195 -27 V
195 -23 V
195 -8 V
195 -31 V
194 -18 V
195 -13 V
195 11 V
195 -39 V
195 -13 V
194 -21 V
195 -6 V
195 59 V
195 -65 V
195 10 V
195 -8 V
194 -8 V
195 44 V
713 2449 BoxF
908 2186 BoxF
1102 2033 BoxF
1297 1923 BoxF
1492 1839 BoxF
1687 1771 BoxF
1882 1714 BoxF
2077 1663 BoxF
2271 1621 BoxF
2466 1584 BoxF
2661 1553 BoxF
2856 1522 BoxF
3051 1490 BoxF
3245 1467 BoxF
3440 1443 BoxF
3635 1416 BoxF
3830 1393 BoxF
4025 1385 BoxF
4220 1354 BoxF
4414 1336 BoxF
4609 1323 BoxF
4804 1334 BoxF
4999 1295 BoxF
5194 1282 BoxF
5388 1261 BoxF
5583 1255 BoxF
5778 1314 BoxF
5973 1249 BoxF
6168 1259 BoxF
6363 1251 BoxF
6557 1243 BoxF
6752 1287 BoxF
6573 4598 BoxF
% End plot #2
% Begin plot #3
1.200 UP
2.000 UL
LT2
0.98 0.48 0.43 C LCb setrgbcolor
6284 4458 M
[ [(Helvetica) 140.0 0.0 true true 0 (Packets)]
] -46.7 MRshow
LT2
0.98 0.48 0.43 C 6368 4458 M
411 0 V
713 2098 M
908 1835 L
194 -156 V
195 -107 V
195 -85 V
195 -71 V
195 -58 V
195 -49 V
194 -42 V
195 -42 V
195 -35 V
195 -29 V
195 -33 V
194 -28 V
195 -23 V
195 -24 V
195 -26 V
195 -16 V
195 -7 V
194 -35 V
195 -18 V
195 -3 V
195 -31 V
195 -13 V
194 9 V
195 -24 V
195 -21 V
195 -4 V
195 -5 V
195 -29 V
194 25 V
195 -40 V
713 2098 TriUF
908 1835 TriUF
1102 1679 TriUF
1297 1572 TriUF
1492 1487 TriUF
1687 1416 TriUF
1882 1358 TriUF
2077 1309 TriUF
2271 1267 TriUF
2466 1225 TriUF
2661 1190 TriUF
2856 1161 TriUF
3051 1128 TriUF
3245 1100 TriUF
3440 1077 TriUF
3635 1053 TriUF
3830 1027 TriUF
4025 1011 TriUF
4220 1004 TriUF
4414 969 TriUF
4609 951 TriUF
4804 948 TriUF
4999 917 TriUF
5194 904 TriUF
5388 913 TriUF
5583 889 TriUF
5778 868 TriUF
5973 864 TriUF
6168 859 TriUF
6363 830 TriUF
6557 855 TriUF
6752 815 TriUF
6573 4458 TriUF
% End plot #3
1.500 UL
LTb
0.42 0.42 0.42 C 518 4871 N
518 448 L
6429 0 V
0 4423 V
-6429 0 V
Z stroke
1.200 UP
1.500 UL
LTb
0.42 0.42 0.42 C stroke
grestore
end
showpage
%%Trailer
%%DocumentFonts: Symbol Helvetica
